{
    "1.14.4": {
        "url": "https://media.forgecdn.net/files/2756/853/fabric-api-0.3.1%2Bbuild.208.jar"
    },
    "1.14.3": {
        "url": "https://media.forgecdn.net/files/2742/310/fabric-api-0.3.0%2Bbuild.198.jar"
    },
    "1.14.2": {
        "url": "https://media.forgecdn.net/files/2724/594/fabric-api-0.3.0%2Bbuild.185.jar"
    },
    "1.14.1": {
        "url": "https://media.forgecdn.net/files/2712/677/fabric-api-0.3.0-pre%2Bbuild.157a.jar"
    },
    "1.14": {
        "url": "https://media.forgecdn.net/files/2702/281/fabric-0.2.7%2Bbuild.127.jar"
    }
}