{

  "id": "Baritone",
  "name": "Baritone",
  "author": "Indrit",
  "description": "Baritone is an addon, \"Installer and version manager\", for Baritone. The addon lets you \"automine\", automatically get from A to B and much more! Currently supported versions are: 1.13.2, 1.14.2, 1.14.3 and 1.14.4",
  "version": "2"

}
